…
    ## ...the genome table...done

Notice that these 50 genomes produces 'only' 8602 fragment clusters, which is half of what the 10 genomes in tutorial 1 had. This is of course because here all genomes are from the same species, and they share many fragments. By inspecting the `Genome.tbl` we can see how many unique clusters each genome has:

``` r
print(ecoli.rms.obj$Genome.tbl)
```

    ## # A tibble: 50 x 5
    ##    genome_id       genome_file         organism_name         N_clusters N_unique
    ##    <chr>           <chr>               <chr>                      <int>    <int>
    ##  1 GCA_001651945.~ GCA_001651945.2_AS~ Escherichia coli O15~       1093        6
    ##  2 GCA_002007705.~ GCA_002007705.1_AS~ Escherichia coli, st~       1073       81
    ##  3 GCA_001612495.~ GCA_001612495.1_AS~ Escherichia coli, st~       1101       20
    ##  4 GCA_000599645.~ GCA_000599645.1_AS~ Escherichia coli, st~        939       78
    ##  5 GCA_003956305.~ GCA_003956305.1_AS~ Escherichia coli, st~        985       87
    ##  6 GCA_009909465.~ GCA_009909465.1_AS~ Escherichia coli, st~       1018      118
    ##  7 GCA_004299805.~ GCA_004299805.1_AS~ Escherichia coli, st~       1084       12
    ##  8 GCA_001683435.~ GCA_001683435.1_AS~ Escherichia coli, st~       1053      182
    ##  9 GCA_000813165.~ GCA_000813165.1_AS~ Escherichia coli , s~       1010       34
    ## 10 GCA_009762415.~ GCA_009762415.1_AS~ Escherichia coli, st~       1085      156
    ## # ... with 40 more rows
…
How large condition value can we tolerate? The perfect value is 1, but this is never achieved with real data. a value below 10 is extremely good. The condition value for the copy number matrix in tutorial 1 is around 3.7, and we saw how all those genomes separated nicely in the dendrogram. Condition values below 100 or even 1000 is still quite acceptable, and even 10 000 is not all that bad. Going above this, we must expect some substantial errors in some abundance estimates. When later running `rmscols()` to estimate abundances, the number of iterations is a measure of how separable the genomes are. A larger condition value means more iterations are needed, and less precise estimates.

Let us 'prune' the genome collection such that we get a smaller set of genomes, that we are capable of separating better. This is done by *genome clustering*. Genomes who are too similar are clustered into a group, and only the centroide genome in this group is used in the analysis, as a representative for the group. We use the function `genomeClustering()` for this:

``` r
ecoli.rms.obj.cls100 <- genomeClustering(ecoli.rms.obj, max.cond = 100)
```

Here we specified that we tolerate a condition value of maximum 100. You would typically choose values of 10<sup>1</sup>, 10<sup>2</sup>, 10<sup>3</sup> or 10<sup>4</sup> here, even if any value above 1 is allowed. The resulting `ecoli.rms.obj.cls100` has a new `Genome.tbl` that we should inspect:

``` r
print(ecoli.rms.obj.cls100$Genome.tbl)
```

    ## # A tibble: 27 x 6
    ##    genome_id  members_genome_id  genome_file  organism_name  N_clusters N_unique
    ##    <chr>      <chr>              <chr>        <chr>               <int>    <int>
    ##  1 GCA_00165~ GCA_001651945.2_A~ GCA_0016519~ Escherichia c~       1093      380
    ##  2 GCA_00289~ GCA_002007705.1_A~ GCA_0028995~ Escherichia c~        908       52
    ##  3 GCA_00059~ GCA_000599645.1_A~ GCA_0005996~ Escherichia c~        939       85
    ##  4 GCA_00990~ GCA_009909465.1_A~ GCA_0099094~ Escherichia c~       1018      121
    ##  5 GCA_00957~ GCA_004299805.1_A~ GCA_0095779~ Escherichia c~       1074      323
    ##  6 GCA_00168~ GCA_001683435.1_A~ GCA_0016834~ Escherichia c~       1053      202
    ##  7 GCA_00102~ GCA_000813165.1_A~ GCA_0010216~ Escherichia c~       1001      143
    ##  8 GCA_00976~ GCA_009762415.1_A~ GCA_0097624~ Escherichia c~       1085      165
    ##  9 GCA_00335~ GCA_002899475.1_A~ GCA_0033551~ Escherichia c~        954       98
    ## 10 GCA_00216~ GCA_002165115.2_A~ GCA_0021651~ Escherichia c~       1031      120
    ## # ... with 17 more rows
…
